…
```
## The following objects are masked from 'package:base':
## 
##     intersect, setdiff, setequal, union
```

```r
      tbl_df(activitycomplete)
```

```
## # A tibble: 17,568 x 4
##    interval steps date       avg.steps
##       <int> <dbl> <chr>          <dbl>
##  1        0  1.72 2012-10-01      1.72
##  2        0  0    2012-11-23      1.72
##  3        0  0    2012-10-28      1.72
##  4        0  0    2012-11-06      1.72
##  5        0  0    2012-11-24      1.72
##  6        0  0    2012-11-15      1.72
##  7        0  0    2012-10-20      1.72
##  8        0  0    2012-11-16      1.72
##  9        0  0    2012-11-07      1.72
## 10        0  0    2012-11-25      1.72
## # … with 17,558 more rows
```
…
